[
    {
        "id": "1",
        "title": "Cat. Sistema",
        "key": "cod_group1_fk"
    },
    {
        "id": "2",
        "title": "Grupo",
        "key": "cod_group2_fk"
    },
    {
        "id": "3",
        "title": "Subgrupo",
        "key": "cod_group3_fk"
    },
    {
        "id": "4",
        "title": "Classe",
        "key": "cod_group4_fk"
    },
    {
        "id": "5",
        "title": "Filtros Especiais",
        "key": "cod_group5_fk"
    },
    {
        "id": "6",
        "title": "Contratos",
        "key": "cod_group6_fk"
    },
    {
        "id": "7",
        "title": "#",
        "key": "cod_group7_fk"
    },
    {
        "id": "8",
        "title": "Outros Agrupamentos",
        "key": "cod_group8_fk"
    }
]
