{
    "id_user_pk": 2,
    "pass": "NULL",
    "mail": "NULL",
    "pass_warning": 0,
    "date_expire": 0,
    "name": "QA",
    "login": "sysadmin",
    "mail_login": "qa@bionexo.com",
    "email": "qa@bionexo.com",
    "cod_user_erp": "ABC01",
    "ddd": "011",
    "tel": "99999-9999",
    "type": 1,
    "password": "8d969eef6ecad3c29a3a629280e686cf0c3f5d5a86aff3ca12020c923adc6c92",
    "bioid_reference": 123456,
    "id_company_fk": 2,
    "active": 1,
    "date_added": "2020-02-19 17:13:49",
    "date_updated": "2020-02-19 18:00:00"
}